<?xml version="1.0" encoding="iso-8859-1"?>
<!-- Generator: Adobe Illustrator 18.1.1, SVG Export Plug-In . SVG Version: 6.00 Build 0)  -->
<svg xmlns="http://www.w3.org/2000/svg" xmlns:xlink="http://www.w3.org/1999/xlink" version="1.1" id="Capa_1" x="0px" y="0px" viewBox="0 0 70.015 70.015" style="enable-background:new 0 0 70.015 70.015;" xml:space="preserve" width="512px" height="512px">
<g id="_x37_7_Essential_Icons_3_">
	<path id="Bookmark" d="M54.008,0h-38c-1.1,0-2,0.9-2,2v66c0,1.8,2.1,2.7,3.4,1.4l17.6-17.6l17.6,17.6c1,1,3.4,0.7,3.4-1.4V2   C56.008,0.9,55.108,0,54.008,0z M52.008,63.2l-15.6-15.6c-0.8-0.8-2-0.8-2.8,0l-15.6,15.6V4h34V63.2z" fill="#FFFFFF"/>
</g>
<g>
</g>
<g>
</g>
<g>
</g>
<g>
</g>
<g>
</g>
<g>
</g>
<g>
</g>
<g>
</g>
<g>
</g>
<g>
</g>
<g>
</g>
<g>
</g>
<g>
</g>
<g>
</g>
<g>
</g>
</svg>
