<?xml version="1.0" encoding="iso-8859-1"?>
<!-- Generator: Adobe Illustrator 19.0.0, SVG Export Plug-In . SVG Version: 6.00 Build 0)  -->
<svg xmlns="http://www.w3.org/2000/svg" xmlns:xlink="http://www.w3.org/1999/xlink" version="1.1" id="Layer_1" x="0px" y="0px" viewBox="0 0 502.187 502.187" style="enable-background:new 0 0 502.187 502.187;" xml:space="preserve" width="512px" height="512px">
<g>
	<g>
		<circle cx="170.667" cy="432.427" r="42.667" fill="#f1c449"/>
	</g>
</g>
<g>
	<g>
		<circle cx="341.333" cy="432.427" r="42.667" fill="#f1c449"/>
	</g>
</g>
<g>
	<g>
		<rect y="27.093" width="85.333" height="42.667" fill="#f1c449"/>
	</g>
</g>
<g>
	<g>
		<path d="M119.04,112.427l-12.373-85.333H85.333L64,30.08l45.44,317.013h288.427l104.32-234.667H119.04z M370.133,304.427H146.56    l-21.333-149.333H436.48L370.133,304.427z" fill="#f1c449"/>
	</g>
</g>
<g>
</g>
<g>
</g>
<g>
</g>
<g>
</g>
<g>
</g>
<g>
</g>
<g>
</g>
<g>
</g>
<g>
</g>
<g>
</g>
<g>
</g>
<g>
</g>
<g>
</g>
<g>
</g>
<g>
</g>
</svg>
